%YAML 1.1
%TAG !u! tag:unity3d.com,2011:
--- !u!1 &7350888058762363421
GameObject:
  m_ObjectHideFlags: 0
  m_CorrespondingSourceObject: {fileID: 0}
  m_PrefabInstance: {fileID: 0}
  m_PrefabAsset: {fileID: 0}
  serializedVersion: 6
  m_Component:
  - component: {fileID: 7350888058762363423}
  - component: {fileID: 7350888058762363420}
  m_Layer: 0
  m_Name: PointCloudParticleExample
  m_TagString: Untagged
  m_Icon: {fileID: 0}
  m_NavMeshLayer: 0
  m_StaticEditorFlags: 0
  m_IsActive: 1
--- !u!4 &7350888058762363423
Transform:
  m_ObjectHideFlags: 0
  m_CorrespondingSourceObject: {fileID: 0}
  m_PrefabInstance: {fileID: 0}
  m_PrefabAsset: {fileID: 0}
  m_GameObject: {fileID: 7350888058762363421}
  m_LocalRotation: {x: 0, y: 0, z: 0, w: 1}
  m_LocalPosition: {x: -139.80289, y: 16.970966, z: -2.2187624}
  m_LocalScale: {x: 1, y: 1, z: 1}
  m_Children: []
  m_Father: {fileID: 0}
  m_RootOrder: 0
  m_LocalEulerAnglesHint: {x: 0, y: 0, z: 0}
--- !u!114 &7350888058762363420
MonoBehaviour:
  m_ObjectHideFlags: 0
  m_CorrespondingSourceObject: {fileID: 0}
  m_PrefabInstance: {fileID: 0}
  m_PrefabAsset: {fileID: 0}
  m_GameObject: {fileID: 7350888058762363421}
  m_Enabled: 1
  m_EditorHideFlags: 0
  m_Script: {fileID: 11500000, guid: ec20d460fbb7e4f92b4d84a10da98cd9, type: 3}
  m_Name: 
  m_EditorClassIdentifier: 
  pointCloudParticlePrefab: {fileID: 198314236125653888, guid: 87db9decf4b3e4cb8bf3eea22ccd37f5,
    type: 3}
  maxPointsToShow: 10000
  particleSize: 0.01
